module golang_echo_mvc_mysql.example.com

go 1.14

require (
	github.com/dgrijalva/jwt-go v3.2.0+incompatible // indirect
	github.com/go-sql-driver/mysql v1.5.0
	github.com/labstack/echo v3.3.10+incompatible
	github.com/labstack/gommon v0.3.0 // indirect
	github.com/valyala/fasttemplate v1.1.0 // indirect
	golang.org/x/crypto v0.0.0-20200323165209-0ec3e9974c59 // indirect
)
